{
    "locale": "en",
    "tags": [
        { "tagName": "Tag.Memory.Int", "title": "app.tags.ValueInt", "format": "1.0-0", "unit": "[ ]" },
        { "tagName": "Tag.Memory.Double", "title": "app.tags.ValueDouble", "format": "1.2-2", "unit": "[ ]" }
    ]
}